Topic 4 Revisions Analysis | Time Series for Official Statistics
…
A quick interpretation of these measures is that earlier estimates are “good” if the decomposition gives low values for \(UM\) and \(UR\) and a high value for \(UD\).

4.4 An example in R

Revision triangles for the GDP series of the EU and Euro area can be downloaded from Eurostat’s website: https://ec.europa.eu/eurostat/web/national-accounts/data/other.

As an example, the file below reports a revision triangle of the GDP series, and it has been published to demonstrate the reliability of the GDP estimates for the Euro area. The reported revision triangle is relative to the period 2017:Q4-2020:Q3. In particular, this example shows an application to the Quarter on Quarter percentage rates of changes of seasonally and calendar adjusted GDP.

library(readxl)

## Import the revision triangle
d <- read_xlsx("RevisionsTriangles_EuroAreaGDP_QonQ.xlsx")
d

## # A tibble: 48 x 13
##    Release          `2017Q4` `2018Q1` `2018Q2` `2018Q3` `2018Q4` `2019Q1` `2019Q2` `2019Q3` `2019Q4` `2020Q1` `2020Q2` `2020Q3`
##    <chr>               <dbl>    <dbl>    <dbl>    <dbl>    <dbl>    <dbl>    <dbl>    <dbl>    <dbl>    <dbl>    <dbl>    <dbl>
##  1 2017Q4 Prelimin~    0.594   NA       NA           NA       NA       NA       NA       NA       NA       NA       NA       NA
##  2 2017Q4-t+45 fla~    0.609   NA       NA           NA       NA       NA       NA       NA       NA       NA       NA       NA
##  3 2017Q4-second (~    0.636   NA       NA           NA       NA       NA       NA       NA       NA       NA       NA       NA
##  4 2017Q4-third (T~    0.699   NA       NA           NA       NA       NA       NA       NA       NA       NA       NA       NA
##  5 2018Q1 Prelimin~    0.699    0.488   NA           NA       NA       NA       NA       NA       NA       NA       NA       NA
##  6 2018Q1-t+45 fla~    0.699    0.448   NA           NA       NA       NA       NA       NA       NA       NA       NA       NA
##  7 2018Q1-second (~    0.706    0.448   NA           NA       NA       NA       NA       NA       NA       NA       NA       NA
##  8 2018Q1-third (T~    0.697    0.438   NA           NA       NA       NA       NA       NA       NA       NA       NA       NA
##  9 2018Q2 Prelimin~    0.697    0.438    0.425       NA       NA       NA       NA       NA       NA       NA       NA       NA
## 10 2018Q2-t+45 fla~    0.697    0.438    0.443       NA       NA       NA       NA       NA       NA       NA       NA       NA
## # ... with 38 more rows
…
