Topic 3 1) INTRODUCTION | Time Series for Official Statistics
…
gdp.data

## 300×4 DataFrame
##  Row │ realtime_start  realtime_end  date        value
##      │ Date            Date          Date        Float64
## ─────┼────────────────────────────────────────────────────
##    1 │ 2022-03-14      2022-03-14    1947-01-01   2034.45
##    2 │ 2022-03-14      2022-03-14    1947-04-01   2029.02
##    3 │ 2022-03-14      2022-03-14    1947-07-01   2024.83
##    4 │ 2022-03-14      2022-03-14    1947-10-01   2056.51
##    5 │ 2022-03-14      2022-03-14    1948-01-01   2087.44
##    6 │ 2022-03-14      2022-03-14    1948-04-01   2121.9
##    7 │ 2022-03-14      2022-03-14    1948-07-01   2134.06
##    8 │ 2022-03-14      2022-03-14    1948-10-01   2136.44
##   ⋮  │       ⋮              ⋮            ⋮          ⋮
##  294 │ 2022-03-14      2022-03-14    2020-04-01  17258.2
##  295 │ 2022-03-14      2022-03-14    2020-07-01  18560.8
##  296 │ 2022-03-14      2022-03-14    2020-10-01  18767.8
##  297 │ 2022-03-14      2022-03-14    2021-01-01  19055.7
##  298 │ 2022-03-14      2022-03-14    2021-04-01  19368.3
##  299 │ 2022-03-14      2022-03-14    2021-07-01  19478.9
##  300 │ 2022-03-14      2022-03-14    2021-10-01  19810.6
##                                           285 rows omitted
…
